module github.com/tenajuro12/gitAss2

go 1.20

require (
	github.com/DATA-DOG/go-sqlmock v1.5.2
	github.com/go-mail/mail/v2 v2.3.0
	github.com/julienschmidt/httprouter v1.3.0
	github.com/lib/pq v1.10.2
	golang.org/x/crypto v0.22.0
	golang.org/x/time v0.5.0
)

require (
	github.com/andybalholm/brotli v1.1.0 // indirect
	github.com/davecgh/go-spew v1.1.1 // indirect
	github.com/gofiber/fiber v1.14.6 // indirect
	github.com/gofiber/utils v1.1.0 // indirect
	github.com/gorilla/schema v1.3.0 // indirect
	github.com/klauspost/compress v1.17.8 // indirect
	github.com/mattn/go-colorable v0.1.13 // indirect
	github.com/mattn/go-isatty v0.0.20 // indirect
	github.com/pmezard/go-difflib v1.0.0 // indirect
	github.com/stretchr/testify v1.9.0 // indirect
	github.com/valyala/bytebufferpool v1.0.0 // indirect
	github.com/valyala/fasthttp v1.52.0 // indirect
	github.com/valyala/tcplisten v1.0.0 // indirect
	golang.org/x/sys v0.20.0 // indirect
	gopkg.in/alexcesaro/quotedprintable.v3 v3.0.0-20150716171945-2caba252f4dc // indirect
	gopkg.in/mail.v2 v2.3.1 // indirect
	gopkg.in/yaml.v3 v3.0.1 // indirect
)
